digraph "/home/mwojtas/Pulpit/programowanie-obiektowe/z6/przyklad-animacji-lazika/prj/inc/scena.hh"
{
 // LATEX_PDF_SIZE
  edge [fontname="FreeSans",fontsize="10",labelfontname="FreeSans",labelfontsize="10"];
  node [fontname="FreeSans",fontsize="10",shape=record];
  Node1 [label="/home/mwojtas/Pulpit\l/programowanie-obiektowe\l/z6/przyklad-animacji-lazika\l/prj/inc/scena.hh",height=0.2,width=0.4,color="black", fillcolor="grey75", style="filled", fontcolor="black",tooltip=" "];
  Node1 -> Node2 [color="midnightblue",fontsize="10",style="solid",fontname="FreeSans"];
  Node2 [label="ObiektGeom.hh",height=0.2,width=0.4,color="black", fillcolor="white", style="filled",URL="$a00041.html",tooltip=" "];
  Node2 -> Node3 [color="midnightblue",fontsize="10",style="solid",fontname="FreeSans"];
  Node3 [label="vector",height=0.2,width=0.4,color="grey75", fillcolor="white", style="filled",tooltip=" "];
  Node2 -> Node4 [color="midnightblue",fontsize="10",style="solid",fontname="FreeSans"];
  Node4 [label="cmath",height=0.2,width=0.4,color="grey75", fillcolor="white", style="filled",tooltip=" "];
  Node2 -> Node5 [color="midnightblue",fontsize="10",style="solid",fontname="FreeSans"];
  Node5 [label="wektor.hh",height=0.2,width=0.4,color="black", fillcolor="white", style="filled",URL="$a00035.html",tooltip=" "];
  Node5 -> Node6 [color="midnightblue",fontsize="10",style="solid",fontname="FreeSans"];
  Node6 [label="iostream",height=0.2,width=0.4,color="grey75", fillcolor="white", style="filled",tooltip=" "];
  Node5 -> Node4 [color="midnightblue",fontsize="10",style="solid",fontname="FreeSans"];
  Node5 -> Node7 [color="midnightblue",fontsize="10",style="solid",fontname="FreeSans"];
  Node7 [label="array",height=0.2,width=0.4,color="grey75", fillcolor="white", style="filled",tooltip=" "];
  Node5 -> Node8 [color="midnightblue",fontsize="10",style="solid",fontname="FreeSans"];
  Node8 [label="rozmiar.h",height=0.2,width=0.4,color="black", fillcolor="white", style="filled",URL="$a00071.html",tooltip=" "];
  Node5 -> Node9 [color="midnightblue",fontsize="10",style="solid",fontname="FreeSans"];
  Node9 [label="Dr3D_gnuplot_api.hh",height=0.2,width=0.4,color="black", fillcolor="white", style="filled",URL="$a00029.html",tooltip=" "];
  Node9 -> Node10 [color="midnightblue",fontsize="10",style="solid",fontname="FreeSans"];
  Node10 [label="Draw3D_api_interface.hh",height=0.2,width=0.4,color="black", fillcolor="white", style="filled",URL="$a00032.html",tooltip=" "];
  Node10 -> Node3 [color="midnightblue",fontsize="10",style="solid",fontname="FreeSans"];
  Node10 -> Node11 [color="midnightblue",fontsize="10",style="solid",fontname="FreeSans"];
  Node11 [label="string",height=0.2,width=0.4,color="grey75", fillcolor="white", style="filled",tooltip=" "];
  Node10 -> Node6 [color="midnightblue",fontsize="10",style="solid",fontname="FreeSans"];
  Node9 -> Node12 [color="midnightblue",fontsize="10",style="solid",fontname="FreeSans"];
  Node12 [label="list",height=0.2,width=0.4,color="grey75", fillcolor="white", style="filled",tooltip=" "];
  Node9 -> Node13 [color="midnightblue",fontsize="10",style="solid",fontname="FreeSans"];
  Node13 [label="map",height=0.2,width=0.4,color="grey75", fillcolor="white", style="filled",tooltip=" "];
  Node9 -> Node14 [color="midnightblue",fontsize="10",style="solid",fontname="FreeSans"];
  Node14 [label="utility",height=0.2,width=0.4,color="grey75", fillcolor="white", style="filled",tooltip=" "];
  Node9 -> Node15 [color="midnightblue",fontsize="10",style="solid",fontname="FreeSans"];
  Node15 [label="memory",height=0.2,width=0.4,color="grey75", fillcolor="white", style="filled",tooltip=" "];
  Node9 -> Node16 [color="midnightblue",fontsize="10",style="solid",fontname="FreeSans"];
  Node16 [label="mutex",height=0.2,width=0.4,color="grey75", fillcolor="white", style="filled",tooltip=" "];
  Node9 -> Node17 [color="midnightblue",fontsize="10",style="solid",fontname="FreeSans"];
  Node17 [label="thread",height=0.2,width=0.4,color="grey75", fillcolor="white", style="filled",tooltip=" "];
  Node5 -> Node10 [color="midnightblue",fontsize="10",style="solid",fontname="FreeSans"];
  Node2 -> Node18 [color="midnightblue",fontsize="10",style="solid",fontname="FreeSans"];
  Node18 [label="macierz.hh",height=0.2,width=0.4,color="black", fillcolor="white", style="filled",URL="$a00038.html",tooltip=" "];
  Node18 -> Node6 [color="midnightblue",fontsize="10",style="solid",fontname="FreeSans"];
  Node18 -> Node4 [color="midnightblue",fontsize="10",style="solid",fontname="FreeSans"];
  Node18 -> Node5 [color="midnightblue",fontsize="10",style="solid",fontname="FreeSans"];
  Node18 -> Node8 [color="midnightblue",fontsize="10",style="solid",fontname="FreeSans"];
  Node2 -> Node9 [color="midnightblue",fontsize="10",style="solid",fontname="FreeSans"];
  Node2 -> Node10 [color="midnightblue",fontsize="10",style="solid",fontname="FreeSans"];
  Node2 -> Node19 [color="midnightblue",fontsize="10",style="solid",fontname="FreeSans"];
  Node19 [label="UW.hh",height=0.2,width=0.4,color="black", fillcolor="white", style="filled",URL="$a00059.html",tooltip=" "];
  Node19 -> Node3 [color="midnightblue",fontsize="10",style="solid",fontname="FreeSans"];
  Node19 -> Node5 [color="midnightblue",fontsize="10",style="solid",fontname="FreeSans"];
  Node19 -> Node18 [color="midnightblue",fontsize="10",style="solid",fontname="FreeSans"];
  Node19 -> Node9 [color="midnightblue",fontsize="10",style="solid",fontname="FreeSans"];
  Node19 -> Node10 [color="midnightblue",fontsize="10",style="solid",fontname="FreeSans"];
  Node2 -> Node20 [color="midnightblue",fontsize="10",style="solid",fontname="FreeSans"];
  Node20 [label="chrono",height=0.2,width=0.4,color="grey75", fillcolor="white", style="filled",tooltip=" "];
  Node2 -> Node17 [color="midnightblue",fontsize="10",style="solid",fontname="FreeSans"];
  Node2 -> Node21 [color="midnightblue",fontsize="10",style="solid",fontname="FreeSans"];
  Node21 [label="InterfejsRysowania.hh",height=0.2,width=0.4,color="black", fillcolor="white", style="filled",URL="$a00056.html",tooltip=" "];
  Node21 -> Node9 [color="midnightblue",fontsize="10",style="solid",fontname="FreeSans"];
  Node21 -> Node10 [color="midnightblue",fontsize="10",style="solid",fontname="FreeSans"];
  Node1 -> Node3 [color="midnightblue",fontsize="10",style="solid",fontname="FreeSans"];
  Node1 -> Node5 [color="midnightblue",fontsize="10",style="solid",fontname="FreeSans"];
  Node1 -> Node18 [color="midnightblue",fontsize="10",style="solid",fontname="FreeSans"];
  Node1 -> Node9 [color="midnightblue",fontsize="10",style="solid",fontname="FreeSans"];
  Node1 -> Node10 [color="midnightblue",fontsize="10",style="solid",fontname="FreeSans"];
  Node1 -> Node22 [color="midnightblue",fontsize="10",style="solid",fontname="FreeSans"];
  Node22 [label="Lazik.hh",height=0.2,width=0.4,color="black", fillcolor="white", style="filled",URL="$a00047.html",tooltip=" "];
  Node22 -> Node3 [color="midnightblue",fontsize="10",style="solid",fontname="FreeSans"];
  Node22 -> Node5 [color="midnightblue",fontsize="10",style="solid",fontname="FreeSans"];
  Node22 -> Node18 [color="midnightblue",fontsize="10",style="solid",fontname="FreeSans"];
  Node22 -> Node9 [color="midnightblue",fontsize="10",style="solid",fontname="FreeSans"];
  Node22 -> Node10 [color="midnightblue",fontsize="10",style="solid",fontname="FreeSans"];
  Node22 -> Node2 [color="midnightblue",fontsize="10",style="solid",fontname="FreeSans"];
  Node22 -> Node23 [color="midnightblue",fontsize="10",style="solid",fontname="FreeSans"];
  Node23 [label="InterfejsPrzeszkody.hh",height=0.2,width=0.4,color="black", fillcolor="white", style="filled",URL="$a00065.html",tooltip=" "];
  Node1 -> Node24 [color="midnightblue",fontsize="10",style="solid",fontname="FreeSans"];
  Node24 [label="powierzchnia.hh",height=0.2,width=0.4,color="black", fillcolor="white", style="filled",URL="$a00053.html",tooltip=" "];
  Node24 -> Node2 [color="midnightblue",fontsize="10",style="solid",fontname="FreeSans"];
  Node24 -> Node5 [color="midnightblue",fontsize="10",style="solid",fontname="FreeSans"];
  Node24 -> Node18 [color="midnightblue",fontsize="10",style="solid",fontname="FreeSans"];
  Node24 -> Node9 [color="midnightblue",fontsize="10",style="solid",fontname="FreeSans"];
  Node24 -> Node10 [color="midnightblue",fontsize="10",style="solid",fontname="FreeSans"];
  Node1 -> Node25 [color="midnightblue",fontsize="10",style="solid",fontname="FreeSans"];
  Node25 [label="Probka.hh",height=0.2,width=0.4,color="black", fillcolor="white", style="filled",URL="$a00050.html",tooltip=" "];
  Node25 -> Node3 [color="midnightblue",fontsize="10",style="solid",fontname="FreeSans"];
  Node25 -> Node5 [color="midnightblue",fontsize="10",style="solid",fontname="FreeSans"];
  Node25 -> Node18 [color="midnightblue",fontsize="10",style="solid",fontname="FreeSans"];
  Node25 -> Node9 [color="midnightblue",fontsize="10",style="solid",fontname="FreeSans"];
  Node25 -> Node10 [color="midnightblue",fontsize="10",style="solid",fontname="FreeSans"];
  Node25 -> Node19 [color="midnightblue",fontsize="10",style="solid",fontname="FreeSans"];
  Node25 -> Node20 [color="midnightblue",fontsize="10",style="solid",fontname="FreeSans"];
  Node25 -> Node17 [color="midnightblue",fontsize="10",style="solid",fontname="FreeSans"];
  Node25 -> Node26 [color="midnightblue",fontsize="10",style="solid",fontname="FreeSans"];
  Node26 [label="InterfejsProbki.hh",height=0.2,width=0.4,color="black", fillcolor="white", style="filled",URL="$a00062.html",tooltip=" "];
  Node25 -> Node2 [color="midnightblue",fontsize="10",style="solid",fontname="FreeSans"];
  Node25 -> Node23 [color="midnightblue",fontsize="10",style="solid",fontname="FreeSans"];
  Node25 -> Node22 [color="midnightblue",fontsize="10",style="solid",fontname="FreeSans"];
  Node1 -> Node27 [color="midnightblue",fontsize="10",style="solid",fontname="FreeSans"];
  Node27 [label="SFR.hh",height=0.2,width=0.4,color="black", fillcolor="white", style="filled",URL="$a00044.html",tooltip=" "];
  Node27 -> Node9 [color="midnightblue",fontsize="10",style="solid",fontname="FreeSans"];
  Node27 -> Node10 [color="midnightblue",fontsize="10",style="solid",fontname="FreeSans"];
  Node27 -> Node2 [color="midnightblue",fontsize="10",style="solid",fontname="FreeSans"];
  Node27 -> Node28 [color="midnightblue",fontsize="10",style="solid",fontname="FreeSans"];
  Node28 [label="InterfejsSFR.hh",height=0.2,width=0.4,color="black", fillcolor="white", style="filled",URL="$a00068.html",tooltip=" "];
  Node1 -> Node29 [color="midnightblue",fontsize="10",style="solid",fontname="FreeSans"];
  Node29 [label="algorithm",height=0.2,width=0.4,color="grey75", fillcolor="white", style="filled",tooltip=" "];
}
