digraph "/home/mwojtas/Pulpit/programowanie-obiektowe/z6/przyklad-animacji-lazika/prj/inc/powierzchnia.hh"
{
 // LATEX_PDF_SIZE
  edge [fontname="FreeSans",fontsize="10",labelfontname="FreeSans",labelfontsize="10"];
  node [fontname="FreeSans",fontsize="10",shape=record];
  Node1 [label="/home/mwojtas/Pulpit\l/programowanie-obiektowe\l/z6/przyklad-animacji-lazika\l/prj/inc/powierzchnia.hh",height=0.2,width=0.4,color="black", fillcolor="grey75", style="filled", fontcolor="black",tooltip=" "];
  Node1 -> Node2 [dir="back",color="midnightblue",fontsize="10",style="solid",fontname="FreeSans"];
  Node2 [label="/home/mwojtas/Pulpit\l/programowanie-obiektowe\l/z6/przyklad-animacji-lazika\l/prj/inc/scena.hh",height=0.2,width=0.4,color="black", fillcolor="white", style="filled",URL="$a00026.html",tooltip=" "];
  Node2 -> Node3 [dir="back",color="midnightblue",fontsize="10",style="solid",fontname="FreeSans"];
  Node3 [label="/home/mwojtas/Pulpit\l/programowanie-obiektowe\l/z6/przyklad-animacji-lazika\l/prj/src/main.cpp",height=0.2,width=0.4,color="black", fillcolor="white", style="filled",URL="$a00083.html",tooltip=" "];
  Node1 -> Node3 [dir="back",color="midnightblue",fontsize="10",style="solid",fontname="FreeSans"];
}
