digraph "/home/mwojtas/Pulpit/programowanie-obiektowe/z6/przyklad-animacji-lazika/prj/inc/rozmiar.h"
{
 // LATEX_PDF_SIZE
  edge [fontname="FreeSans",fontsize="10",labelfontname="FreeSans",labelfontsize="10"];
  node [fontname="FreeSans",fontsize="10",shape=record];
  Node1 [label="/home/mwojtas/Pulpit\l/programowanie-obiektowe\l/z6/przyklad-animacji-lazika\l/prj/inc/rozmiar.h",height=0.2,width=0.4,color="black", fillcolor="grey75", style="filled", fontcolor="black",tooltip=" "];
  Node1 -> Node2 [dir="back",color="midnightblue",fontsize="10",style="solid",fontname="FreeSans"];
  Node2 [label="/home/mwojtas/Pulpit\l/programowanie-obiektowe\l/z6/przyklad-animacji-lazika\l/prj/inc/macierz.hh",height=0.2,width=0.4,color="black", fillcolor="white", style="filled",URL="$a00038.html",tooltip=" "];
  Node2 -> Node3 [dir="back",color="midnightblue",fontsize="10",style="solid",fontname="FreeSans"];
  Node3 [label="/home/mwojtas/Pulpit\l/programowanie-obiektowe\l/z6/przyklad-animacji-lazika\l/prj/inc/Lazik.hh",height=0.2,width=0.4,color="black", fillcolor="white", style="filled",URL="$a00047.html",tooltip=" "];
  Node3 -> Node4 [dir="back",color="midnightblue",fontsize="10",style="solid",fontname="FreeSans"];
  Node4 [label="/home/mwojtas/Pulpit\l/programowanie-obiektowe\l/z6/przyklad-animacji-lazika\l/prj/inc/Probka.hh",height=0.2,width=0.4,color="black", fillcolor="white", style="filled",URL="$a00050.html",tooltip=" "];
  Node4 -> Node5 [dir="back",color="midnightblue",fontsize="10",style="solid",fontname="FreeSans"];
  Node5 [label="/home/mwojtas/Pulpit\l/programowanie-obiektowe\l/z6/przyklad-animacji-lazika\l/prj/inc/scena.hh",height=0.2,width=0.4,color="black", fillcolor="white", style="filled",URL="$a00026.html",tooltip=" "];
  Node5 -> Node6 [dir="back",color="midnightblue",fontsize="10",style="solid",fontname="FreeSans"];
  Node6 [label="/home/mwojtas/Pulpit\l/programowanie-obiektowe\l/z6/przyklad-animacji-lazika\l/prj/src/main.cpp",height=0.2,width=0.4,color="black", fillcolor="white", style="filled",URL="$a00083.html",tooltip=" "];
  Node3 -> Node5 [dir="back",color="midnightblue",fontsize="10",style="solid",fontname="FreeSans"];
  Node3 -> Node6 [dir="back",color="midnightblue",fontsize="10",style="solid",fontname="FreeSans"];
  Node2 -> Node7 [dir="back",color="midnightblue",fontsize="10",style="solid",fontname="FreeSans"];
  Node7 [label="/home/mwojtas/Pulpit\l/programowanie-obiektowe\l/z6/przyklad-animacji-lazika\l/prj/inc/ObiektGeom.hh",height=0.2,width=0.4,color="black", fillcolor="white", style="filled",URL="$a00041.html",tooltip=" "];
  Node7 -> Node3 [dir="back",color="midnightblue",fontsize="10",style="solid",fontname="FreeSans"];
  Node7 -> Node4 [dir="back",color="midnightblue",fontsize="10",style="solid",fontname="FreeSans"];
  Node7 -> Node8 [dir="back",color="midnightblue",fontsize="10",style="solid",fontname="FreeSans"];
  Node8 [label="/home/mwojtas/Pulpit\l/programowanie-obiektowe\l/z6/przyklad-animacji-lazika\l/prj/inc/SFR.hh",height=0.2,width=0.4,color="black", fillcolor="white", style="filled",URL="$a00044.html",tooltip=" "];
  Node8 -> Node5 [dir="back",color="midnightblue",fontsize="10",style="solid",fontname="FreeSans"];
  Node7 -> Node9 [dir="back",color="midnightblue",fontsize="10",style="solid",fontname="FreeSans"];
  Node9 [label="/home/mwojtas/Pulpit\l/programowanie-obiektowe\l/z6/przyklad-animacji-lazika\l/prj/inc/powierzchnia.hh",height=0.2,width=0.4,color="black", fillcolor="white", style="filled",URL="$a00053.html",tooltip=" "];
  Node9 -> Node5 [dir="back",color="midnightblue",fontsize="10",style="solid",fontname="FreeSans"];
  Node9 -> Node6 [dir="back",color="midnightblue",fontsize="10",style="solid",fontname="FreeSans"];
  Node7 -> Node5 [dir="back",color="midnightblue",fontsize="10",style="solid",fontname="FreeSans"];
  Node2 -> Node4 [dir="back",color="midnightblue",fontsize="10",style="solid",fontname="FreeSans"];
  Node2 -> Node10 [dir="back",color="midnightblue",fontsize="10",style="solid",fontname="FreeSans"];
  Node10 [label="/home/mwojtas/Pulpit\l/programowanie-obiektowe\l/z6/przyklad-animacji-lazika\l/prj/inc/UW.hh",height=0.2,width=0.4,color="black", fillcolor="white", style="filled",URL="$a00059.html",tooltip=" "];
  Node10 -> Node7 [dir="back",color="midnightblue",fontsize="10",style="solid",fontname="FreeSans"];
  Node10 -> Node4 [dir="back",color="midnightblue",fontsize="10",style="solid",fontname="FreeSans"];
  Node2 -> Node9 [dir="back",color="midnightblue",fontsize="10",style="solid",fontname="FreeSans"];
  Node2 -> Node5 [dir="back",color="midnightblue",fontsize="10",style="solid",fontname="FreeSans"];
  Node1 -> Node11 [dir="back",color="midnightblue",fontsize="10",style="solid",fontname="FreeSans"];
  Node11 [label="/home/mwojtas/Pulpit\l/programowanie-obiektowe\l/z6/przyklad-animacji-lazika\l/prj/inc/wektor.hh",height=0.2,width=0.4,color="black", fillcolor="white", style="filled",URL="$a00035.html",tooltip=" "];
  Node11 -> Node3 [dir="back",color="midnightblue",fontsize="10",style="solid",fontname="FreeSans"];
  Node11 -> Node7 [dir="back",color="midnightblue",fontsize="10",style="solid",fontname="FreeSans"];
  Node11 -> Node4 [dir="back",color="midnightblue",fontsize="10",style="solid",fontname="FreeSans"];
  Node11 -> Node10 [dir="back",color="midnightblue",fontsize="10",style="solid",fontname="FreeSans"];
  Node11 -> Node2 [dir="back",color="midnightblue",fontsize="10",style="solid",fontname="FreeSans"];
  Node11 -> Node9 [dir="back",color="midnightblue",fontsize="10",style="solid",fontname="FreeSans"];
  Node11 -> Node5 [dir="back",color="midnightblue",fontsize="10",style="solid",fontname="FreeSans"];
}
