digraph "main"
{
 // LATEX_PDF_SIZE
  edge [fontname="FreeSans",fontsize="10",labelfontname="FreeSans",labelfontsize="10"];
  node [fontname="FreeSans",fontsize="10",shape=record];
  rankdir="LR";
  Node1 [label="main",height=0.2,width=0.4,color="black", fillcolor="grey75", style="filled", fontcolor="black",tooltip=" "];
  Node1 -> Node2 [color="midnightblue",fontsize="10",style="solid",fontname="FreeSans"];
  Node2 [label="scena::lazikjedz1",height=0.2,width=0.4,color="black", fillcolor="white", style="filled",URL="$a00146.html#a96cf4bf3ce2f23cf77f3b06d1519467c",tooltip=" "];
  Node2 -> Node3 [color="midnightblue",fontsize="10",style="solid",fontname="FreeSans"];
  Node3 [label="scena::czykolizja",height=0.2,width=0.4,color="black", fillcolor="white", style="filled",URL="$a00146.html#a134cfd5dcb194ced230deb9ecb82d88d",tooltip=" "];
  Node3 -> Node4 [color="midnightblue",fontsize="10",style="solid",fontname="FreeSans"];
  Node4 [label="scena::pobranieprobki1",height=0.2,width=0.4,color="black", fillcolor="white", style="filled",URL="$a00146.html#a74b4d805196ed91e16bb1acab6fbb30c",tooltip=" "];
  Node4 -> Node5 [color="midnightblue",fontsize="10",style="solid",fontname="FreeSans"];
  Node5 [label="scena::usunprobke",height=0.2,width=0.4,color="black", fillcolor="white", style="filled",URL="$a00146.html#a7a3702ca6ed2d4ea4a9b4493c46b1d9b",tooltip=" "];
  Node4 -> Node6 [color="midnightblue",fontsize="10",style="solid",fontname="FreeSans"];
  Node6 [label="scena::wypisanieprobek",height=0.2,width=0.4,color="black", fillcolor="white", style="filled",URL="$a00146.html#adc7206460a2be9966768a16980aef1c8",tooltip=" "];
  Node2 -> Node6 [color="midnightblue",fontsize="10",style="solid",fontname="FreeSans"];
  Node1 -> Node7 [color="midnightblue",fontsize="10",style="solid",fontname="FreeSans"];
  Node7 [label="scena::lazikobrot",height=0.2,width=0.4,color="black", fillcolor="white", style="filled",URL="$a00146.html#a8b182db7cdf8462f55c08c247d048b19",tooltip=" "];
  Node1 -> Node8 [color="midnightblue",fontsize="10",style="solid",fontname="FreeSans"];
  Node8 [label="scena::pokazlazika",height=0.2,width=0.4,color="black", fillcolor="white", style="filled",URL="$a00146.html#afb55e2d3399a12c95c3f945f87a29466",tooltip=" "];
  Node1 -> Node9 [color="midnightblue",fontsize="10",style="solid",fontname="FreeSans"];
  Node9 [label="powierzchnia::rysuj",height=0.2,width=0.4,color="black", fillcolor="white", style="filled",URL="$a00138.html#a9b2b633587ccc26e18d16be61282828d",tooltip=" "];
  Node9 -> Node10 [color="midnightblue",fontsize="10",style="solid",fontname="FreeSans"];
  Node10 [label="Wektor3D::zwrocpunkt",height=0.2,width=0.4,color="black", fillcolor="white", style="filled",URL="$a00162.html#a4911d932c00c316045321608fadf1083",tooltip=" "];
  Node1 -> Node11 [color="midnightblue",fontsize="10",style="solid",fontname="FreeSans"];
  Node11 [label="scena::rysuj",height=0.2,width=0.4,color="black", fillcolor="white", style="filled",URL="$a00146.html#a3ccf28e7f3f799163dd1deec4b753b9a",tooltip=" "];
  Node1 -> Node12 [color="midnightblue",fontsize="10",style="solid",fontname="FreeSans"];
  Node12 [label="wait4key",height=0.2,width=0.4,color="black", fillcolor="white", style="filled",URL="$a00083.html#a3778578513b12b6f0e8bcf837b78e987",tooltip=" "];
  Node1 -> Node13 [color="midnightblue",fontsize="10",style="solid",fontname="FreeSans"];
  Node13 [label="scena::wypisznazwe",height=0.2,width=0.4,color="black", fillcolor="white", style="filled",URL="$a00146.html#a40de7d788082805a88b81c62b6e8612a",tooltip=" "];
  Node1 -> Node14 [color="midnightblue",fontsize="10",style="solid",fontname="FreeSans"];
  Node14 [label="scena::wypiszprobki",height=0.2,width=0.4,color="black", fillcolor="white", style="filled",URL="$a00146.html#a36b1c6a376604bec29d60a8424a8b14a",tooltip=" "];
  Node1 -> Node15 [color="midnightblue",fontsize="10",style="solid",fontname="FreeSans"];
  Node15 [label="zwrocutworzeoneobiekty",height=0.2,width=0.4,color="black", fillcolor="white", style="filled",URL="$a00083.html#aeb118caf314200b3e7e830c3b29e766e",tooltip=" "];
  Node15 -> Node16 [color="midnightblue",fontsize="10",style="solid",fontname="FreeSans"];
  Node16 [label="Wektor3D::getaktualne",height=0.2,width=0.4,color="black", fillcolor="white", style="filled",URL="$a00162.html#a6026e49e2a95b3d5a8b7aeb6b11ec8bb",tooltip=" "];
  Node15 -> Node17 [color="midnightblue",fontsize="10",style="solid",fontname="FreeSans"];
  Node17 [label="Wektor3D::getwszystkie",height=0.2,width=0.4,color="black", fillcolor="white", style="filled",URL="$a00162.html#accf0a86c2764f6b3fffba0d4bbb76314",tooltip=" "];
}
