digraph "ObiektGeom::przesuniecie"
{
 // LATEX_PDF_SIZE
  edge [fontname="FreeSans",fontsize="10",labelfontname="FreeSans",labelfontsize="10"];
  node [fontname="FreeSans",fontsize="10",shape=record];
  rankdir="RL";
  Node1 [label="ObiektGeom::przesuniecie",height=0.2,width=0.4,color="black", fillcolor="grey75", style="filled", fontcolor="black",tooltip=" "];
  Node1 -> Node2 [dir="back",color="midnightblue",fontsize="10",style="solid",fontname="FreeSans"];
  Node2 [label="ObiektGeom::animacjajedz",height=0.2,width=0.4,color="black", fillcolor="white", style="filled",URL="$a00134.html#a2e8ee4f8148325aa5951aeb72cf0b874",tooltip=" "];
}
