digraph "Probka"
{
 // LATEX_PDF_SIZE
  edge [fontname="FreeSans",fontsize="10",labelfontname="FreeSans",labelfontsize="10"];
  node [fontname="FreeSans",fontsize="10",shape=record];
  Node1 [label="Probka",height=0.2,width=0.4,color="black", fillcolor="grey75", style="filled", fontcolor="black",tooltip=" "];
  Node2 -> Node1 [dir="back",color="midnightblue",fontsize="10",style="solid",fontname="FreeSans"];
  Node2 [label="Interfejs_przeszkody",height=0.2,width=0.4,color="black", fillcolor="white", style="filled",URL="$a00110.html",tooltip=" "];
  Node3 -> Node1 [dir="back",color="midnightblue",fontsize="10",style="solid",fontname="FreeSans"];
  Node3 [label="Interfejs_probki",height=0.2,width=0.4,color="black", fillcolor="white", style="filled",URL="$a00106.html",tooltip=" "];
  Node4 -> Node1 [dir="back",color="midnightblue",fontsize="10",style="solid",fontname="FreeSans"];
  Node4 [label="ObiektGeom",height=0.2,width=0.4,color="black", fillcolor="white", style="filled",URL="$a00134.html",tooltip=" "];
  Node5 -> Node4 [dir="back",color="midnightblue",fontsize="10",style="solid",fontname="FreeSans"];
  Node5 [label="UW",height=0.2,width=0.4,color="black", fillcolor="white", style="filled",URL="$a00154.html",tooltip=" "];
  Node5 -> Node5 [dir="back",color="darkorchid3",fontsize="10",style="dashed",label=" rodzic" ,fontname="FreeSans"];
  Node6 -> Node5 [dir="back",color="darkorchid3",fontsize="10",style="dashed",label=" orientacja" ,fontname="FreeSans"];
  Node6 [label="MacierzOb",height=0.2,width=0.4,color="black", fillcolor="white", style="filled",URL="$a00130.html",tooltip=" "];
  Node7 -> Node6 [dir="back",color="midnightblue",fontsize="10",style="solid",fontname="FreeSans"];
  Node7 [label="Macierz\< double, 3 \>",height=0.2,width=0.4,color="black", fillcolor="white", style="filled",URL="$a00126.html",tooltip=" "];
  Node8 -> Node7 [dir="back",color="darkorchid3",fontsize="10",style="dashed",label=" tabm" ,fontname="FreeSans"];
  Node8 [label="Wektor\< double, ROZMIAR \>",height=0.2,width=0.4,color="black", fillcolor="white", style="filled",URL="$a00158.html",tooltip=" "];
  Node9 -> Node8 [dir="back",color="orange",fontsize="10",style="dashed",label=" \< double, ROZMIAR \>" ,fontname="FreeSans"];
  Node9 [label="Wektor\< Typ, ROZMIAR \>",height=0.2,width=0.4,color="black", fillcolor="white", style="filled",URL="$a00158.html",tooltip=" "];
  Node10 -> Node7 [dir="back",color="orange",fontsize="10",style="dashed",label=" \< double, 3 \>" ,fontname="FreeSans"];
  Node10 [label="Macierz\< Typ, ROZMIAR \>",height=0.2,width=0.4,color="black", fillcolor="white", style="filled",URL="$a00126.html",tooltip=" "];
  Node11 -> Node5 [dir="back",color="darkorchid3",fontsize="10",style="dashed",label=" polozenie" ,fontname="FreeSans"];
  Node11 [label="Wektor3D",height=0.2,width=0.4,color="black", fillcolor="white", style="filled",URL="$a00162.html",tooltip=" "];
  Node12 -> Node11 [dir="back",color="midnightblue",fontsize="10",style="solid",fontname="FreeSans"];
  Node12 [label="Wektor\< double, 3 \>",height=0.2,width=0.4,color="black", fillcolor="white", style="filled",URL="$a00158.html",tooltip=" "];
  Node9 -> Node12 [dir="back",color="orange",fontsize="10",style="dashed",label=" \< double, 3 \>" ,fontname="FreeSans"];
  Node13 -> Node4 [dir="back",color="midnightblue",fontsize="10",style="solid",fontname="FreeSans"];
  Node13 [label="Interfejs_rysowania",height=0.2,width=0.4,color="black", fillcolor="white", style="filled",URL="$a00114.html",tooltip=" "];
  Node14 -> Node4 [dir="back",color="darkorchid3",fontsize="10",style="dashed",label=" color\nnazwaObiektu" ,fontname="FreeSans"];
  Node14 [label="string",height=0.2,width=0.4,color="black", fillcolor="white", style="filled",tooltip=" "];
}
