digraph "SFR"
{
 // LATEX_PDF_SIZE
  edge [fontname="FreeSans",fontsize="10",labelfontname="FreeSans",labelfontsize="10"];
  node [fontname="FreeSans",fontsize="10",shape=record];
  Node1 [label="SFR",height=0.2,width=0.4,color="black", fillcolor="grey75", style="filled", fontcolor="black",tooltip=" "];
  Node2 -> Node1 [dir="back",color="midnightblue",fontsize="10",style="solid",fontname="FreeSans"];
  Node2 [label="Lazik",height=0.2,width=0.4,color="black", fillcolor="white", style="filled",URL="$a00122.html",tooltip=" "];
  Node3 -> Node2 [dir="back",color="midnightblue",fontsize="10",style="solid",fontname="FreeSans"];
  Node3 [label="Interfejs_przeszkody",height=0.2,width=0.4,color="black", fillcolor="white", style="filled",URL="$a00110.html",tooltip=" "];
  Node4 -> Node2 [dir="back",color="midnightblue",fontsize="10",style="solid",fontname="FreeSans"];
  Node4 [label="ObiektGeom",height=0.2,width=0.4,color="black", fillcolor="white", style="filled",URL="$a00134.html",tooltip=" "];
  Node5 -> Node4 [dir="back",color="midnightblue",fontsize="10",style="solid",fontname="FreeSans"];
  Node5 [label="UW",height=0.2,width=0.4,color="black", fillcolor="white", style="filled",URL="$a00154.html",tooltip=" "];
  Node6 -> Node4 [dir="back",color="midnightblue",fontsize="10",style="solid",fontname="FreeSans"];
  Node6 [label="Interfejs_rysowania",height=0.2,width=0.4,color="black", fillcolor="white", style="filled",URL="$a00114.html",tooltip=" "];
  Node7 -> Node1 [dir="back",color="midnightblue",fontsize="10",style="solid",fontname="FreeSans"];
  Node7 [label="Interfejs_SFR",height=0.2,width=0.4,color="black", fillcolor="white", style="filled",URL="$a00118.html",tooltip=" "];
}
