digraph "Wektor3D::zwrocpunkt"
{
 // LATEX_PDF_SIZE
  edge [fontname="FreeSans",fontsize="10",labelfontname="FreeSans",labelfontsize="10"];
  node [fontname="FreeSans",fontsize="10",shape=record];
  rankdir="RL";
  Node1 [label="Wektor3D::zwrocpunkt",height=0.2,width=0.4,color="black", fillcolor="grey75", style="filled", fontcolor="black",tooltip=" "];
  Node1 -> Node2 [dir="back",color="midnightblue",fontsize="10",style="solid",fontname="FreeSans"];
  Node2 [label="powierzchnia::rysuj",height=0.2,width=0.4,color="black", fillcolor="white", style="filled",URL="$a00138.html#a9b2b633587ccc26e18d16be61282828d",tooltip=" "];
  Node2 -> Node3 [dir="back",color="midnightblue",fontsize="10",style="solid",fontname="FreeSans"];
  Node3 [label="main",height=0.2,width=0.4,color="black", fillcolor="white", style="filled",URL="$a00083.html#ae66f6b31b5ad750f1fe042a706a4e3d4",tooltip=" "];
}
