digraph "Interfejs_przeszkody"
{
 // LATEX_PDF_SIZE
  edge [fontname="FreeSans",fontsize="10",labelfontname="FreeSans",labelfontsize="10"];
  node [fontname="FreeSans",fontsize="10",shape=record];
  Node1 [label="Interfejs_przeszkody",height=0.2,width=0.4,color="black", fillcolor="grey75", style="filled", fontcolor="black",tooltip=" "];
  Node1 -> Node2 [dir="back",color="midnightblue",fontsize="10",style="solid",fontname="FreeSans"];
  Node2 [label="Lazik",height=0.2,width=0.4,color="black", fillcolor="white", style="filled",URL="$a00122.html",tooltip=" "];
  Node2 -> Node3 [dir="back",color="midnightblue",fontsize="10",style="solid",fontname="FreeSans"];
  Node3 [label="SFR",height=0.2,width=0.4,color="black", fillcolor="white", style="filled",URL="$a00150.html",tooltip=" "];
  Node1 -> Node4 [dir="back",color="midnightblue",fontsize="10",style="solid",fontname="FreeSans"];
  Node4 [label="Probka",height=0.2,width=0.4,color="black", fillcolor="white", style="filled",URL="$a00142.html",tooltip=" "];
}
