digraph "Probka::wypiszprobke"
{
 // LATEX_PDF_SIZE
  edge [fontname="FreeSans",fontsize="10",labelfontname="FreeSans",labelfontsize="10"];
  node [fontname="FreeSans",fontsize="10",shape=record];
  rankdir="LR";
  Node1 [label="Probka::wypiszprobke",height=0.2,width=0.4,color="black", fillcolor="grey75", style="filled", fontcolor="black",tooltip=" "];
  Node1 -> Node2 [color="midnightblue",fontsize="10",style="solid",fontname="FreeSans"];
  Node2 [label="ObiektGeom::getnazwa",height=0.2,width=0.4,color="black", fillcolor="white", style="filled",URL="$a00134.html#adfc879b088798058fe5617bdef33dac8",tooltip=" "];
}
