digraph "Graficzna hierarchia klas"
{
 // LATEX_PDF_SIZE
  edge [fontname="FreeSans",fontsize="10",labelfontname="FreeSans",labelfontsize="10"];
  node [fontname="FreeSans",fontsize="10",shape=record];
  rankdir="LR";
  Node0 [label="Interfejs_probki",height=0.2,width=0.4,color="black", fillcolor="white", style="filled",URL="$a00106.html",tooltip=" "];
  Node0 -> Node1 [dir="back",color="midnightblue",fontsize="10",style="solid",fontname="FreeSans"];
  Node1 [label="Probka",height=0.2,width=0.4,color="black", fillcolor="white", style="filled",URL="$a00142.html",tooltip=" "];
  Node2 [label="Interfejs_przeszkody",height=0.2,width=0.4,color="black", fillcolor="white", style="filled",URL="$a00110.html",tooltip=" "];
  Node2 -> Node3 [dir="back",color="midnightblue",fontsize="10",style="solid",fontname="FreeSans"];
  Node3 [label="Lazik",height=0.2,width=0.4,color="black", fillcolor="white", style="filled",URL="$a00122.html",tooltip=" "];
  Node3 -> Node4 [dir="back",color="midnightblue",fontsize="10",style="solid",fontname="FreeSans"];
  Node4 [label="SFR",height=0.2,width=0.4,color="black", fillcolor="white", style="filled",URL="$a00150.html",tooltip=" "];
  Node2 -> Node1 [dir="back",color="midnightblue",fontsize="10",style="solid",fontname="FreeSans"];
  Node8 [label="Interfejs_rysowania",height=0.2,width=0.4,color="black", fillcolor="white", style="filled",URL="$a00114.html",tooltip=" "];
  Node8 -> Node6 [dir="back",color="midnightblue",fontsize="10",style="solid",fontname="FreeSans"];
  Node6 [label="ObiektGeom",height=0.2,width=0.4,color="black", fillcolor="white", style="filled",URL="$a00134.html",tooltip=" "];
  Node6 -> Node3 [dir="back",color="midnightblue",fontsize="10",style="solid",fontname="FreeSans"];
  Node6 -> Node1 [dir="back",color="midnightblue",fontsize="10",style="solid",fontname="FreeSans"];
  Node6 -> Node7 [dir="back",color="midnightblue",fontsize="10",style="solid",fontname="FreeSans"];
  Node7 [label="powierzchnia",height=0.2,width=0.4,color="black", fillcolor="white", style="filled",URL="$a00138.html",tooltip=" "];
  Node8 -> Node9 [dir="back",color="midnightblue",fontsize="10",style="solid",fontname="FreeSans"];
  Node9 [label="scena",height=0.2,width=0.4,color="black", fillcolor="white", style="filled",URL="$a00146.html",tooltip=" "];
  Node5 [label="Interfejs_SFR",height=0.2,width=0.4,color="black", fillcolor="white", style="filled",URL="$a00118.html",tooltip=" "];
  Node5 -> Node4 [dir="back",color="midnightblue",fontsize="10",style="solid",fontname="FreeSans"];
  Node10 [label="UW",height=0.2,width=0.4,color="black", fillcolor="white", style="filled",URL="$a00154.html",tooltip=" "];
  Node10 -> Node6 [dir="back",color="midnightblue",fontsize="10",style="solid",fontname="FreeSans"];
}
