
Równanie: Ax=B
Rozwiązania: x=A^-1*B, Cramer, Gauss

Wektor:
	dodawanie, 
	odejmowanie, 
	iloczyn skalarny,
	iloczyn wektorowy,
	mnożenie przez liczbe,
	dlugosc wektora,

	Przechowywanie: double tab[3], std::array<double,3>tab, std::vector<double>tab, 
	konstruktor bezparametryczny(wypełniamy zerami tab{0,0,0}{}), 
	konstruktor parametryczny(wektor {double x,double y, double z}{tab{a,b,c}}{},
	konstruktor kopiujący Wektor(Wektor &W)=default
	Odwołanie się do pól wektora
	
	Poza klasą:
	<<
	>>
	Aby móc wczytać i wypisać potrzebujemy settery i gettery:
	
		void set(a), double get(A) const;
	
		double &operator[](int index)
		{
			assert(index>=0||index<3)
		return tab[intex];
		}
	

	getter:
	const double & operator[](int index) const; double c=W[2];













Macierz:
	implementacja:
		1.double tab[3][3];
		2.std::array<Wektor,3>tab;
		3.Wektor tab[3]
	Dodawanie, 
	odejmowanie, 
	mnożenie 
	mnozenie Macierz,
mnozenie wektor,
 transponowanie,
  wyznacznik

	| W1 | W2 | W3 | Czytanie Cramer
	|	 |	  |	   |
	|	 |	  |	   |
	|	 |	  |	   |
	|	 |	  |    |

Drugi sposob: wyświetlanie, Gauss, mnożenie Macierz x Wektor, 

--------------
W1.1|W1.2|W1.3
--------------
W2.1|W2.2|W2.3
--------------
W3.1|W3.2|W3.3
--------------

-----------------------------------------------------------------------
Konstruktory bezparametryczny 0, parametryczny przyjmujący  3 wektory,
kopiujący, ew.parametryczny na liście inicjującej

Settery, gettery-anal.przeciążenie, Wektor &operator[](int index)
ew. const Wektor &operator[](int index) const;
ew.double operator()(int i, int j){
	return tab[i][j];
}; 
--------------------------------------------------------------------------
Klasa UKŁAD RÓWNAŃ LINIOWYCH
class{
	private:
	Wektor
	Macierz
	public:
	Oblicz();
}

Na za tydzień pełna implementacja WEKTORA, Macierz bez matematyki